{"count":138,"next":"https://apis.houm.com/backend/properties/marketplace/?boundings=%5B%5B4.66%2C+-74.07%5D%2C+%5B4.78%2C+-74.01%5D%5D&mode=sale&page=2&page_size=5&photos_number=1&type=departamento","previous":null,"results":[{"uid":"672740fd-c470-4c9b-9b7b-0a73fc37b6a9","id":125093,"address":"Carrera 5","association_amenities":{"association_name":""},"comuna":"Usaquén","hotness_score":1,"investment_type":"regular","last_publication_date":"2026-06-09T14:08:14.522817Z","neighborhood":{"commune":"Usaquén","country_code":"co","neighborhood":"Las Delicias del Carmen","region":"Bogotá"},"photos":[{"id":"62423d88-4064-4dea-a2c4-a50da6427575","created_at":"2026-07-17T18:50:55.778011Z","updated_at":"2026-07-17T18:50:55.778020Z","filename":"whatsappimage20260715at65928pm.jpg","featured":false,"order":0,"url":"https://s3.amazonaws.com/properties-media/thumbnail/672740fd-c470-4c9b-9b7b-0a73fc37b6a9whatsappimage20260715at65928pm.jpg"}],"property_details":[{"banos":2,"dormitorios":2,"latitud":4.7048405,"longitud":-74.02566039999999,"m_construidos":56,"m_terreno":60}],"region":"Bogotá","type":"departamento","user":{"role":"propietary"},"first_available_handover_date":null,"development":null,"price":[{"value":308000000.0,"recommended_value":288619600.0,"currency":"COP","default":true}],"previous_price":[],"last_price_change_date":null,"is_price_lower":false,"unit_types":[]},{"uid":"98d8384d-45fc-486a-8f9a-2619efe160de","id":156277,"address":"Calle 161","association_amenities":{"association_name":null},"comuna":"Usaquén","hotness_score":1,"investment_type":"regular","last_publication_date":"2025-07-22T17:18:41.390364Z","neighborhood":{"commune":"Usaquén","country_code":"co","neighborhood":"Barrancas Norte","region":"Bogotá"},"photos":[{"id":"543ba945-e79d-4ca0-aa43-72f487f3d256","created_at":"2025-07-22T15:48:46.328686Z","updated_at":"2025-07-22T15:48:46.328704Z","filename":"property98d8384d45fc486a8f9a2619efe160degou59xuy38k.jpg","featured":false,"order":0,"url":"https://s3.amazonaws.com/properties-media/thumbnail/98d8384d-45fc-486a-8f9a-2619efe160deproperty98d8384d45fc486a8f9a2619efe160degou59xuy38k.jpg"}],"property_details":[{"banos":2,"dormitorios":2,"latitud":4.7363593,"longitud":-74.025117,"m_construidos":41,"m_terreno":41}],"region":"Bogotá","type":"departamento","user":{"role":"applicant"},"first_available_handover_date":"2025-07-22T05:00:00Z","development":null,"price":[{"value":320000000.0,"recommended_value":247299300.0,"currency":"COP","default":true}],"previous_price":[{"value":297000000.0,"recommended_value":null,"currency":"COP","default":false}],"last_price_change_date":"2026-06-09T14:38:03.083802Z","is_price_lower":false,"unit_types":[]},{"uid":"a50ad8ba-3f87-478a-ac56-6ff97f319fb4","id":165923,"address":"Calle 89a","association_amenities":{"association_name":"edificio Tuliv el Polo"},"comuna":"Barrios Unidos","hotness_score":1,"investment_type":"regular","last_publication_date":"2026-05-22T15:22:38.481236Z","neighborhood":{"commune":"Barrios Unidos","country_code":"co","neighborhood":"Polo Club","region":"Bogotá"},"photos":[{"id":"a6421184-8715-453b-a860-961924b9e5ae","created_at":"2026-02-05T05:16:15.914528Z","updated_at":"2026-02-05T05:16:15.914548Z","filename":"propertya50ad8ba3f87478aac566ff97f319fb4hdbpctfahqa.jpg","featured":false,"order":0,"url":"https://s3.amazonaws.com/properties-media/thumbnail/a50ad8ba-3f87-478a-ac56-6ff97f319fb4propertya50ad8ba3f87478aac566ff97f319fb4hdbpctfahqa.jpg"}],"property_details":[{"banos":1,"dormitorios":1,"latitud":4.6771519,"longitud":-74.060214,"m_construidos":37,"m_terreno":37}],"region":"Bogotá","type":"departamento","user":{"role":"propietary"},"first_available_handover_date":null,"development":null,"price":[{"value":380000000.0,"recommended_value":266773750.0,"currency":"COP","default":true}],"previous_price":[],"last_price_change_date":null,"is_price_lower":false,"unit_types":[]},{"uid":"97a3ba55-30b8-4339-8854-29ca5b9bbfa1","id":155129,"address":"Calle 170","association_amenities":{"association_name":null},"comuna":"Usaquén","hotness_score":1,"investment_type":"regular","last_publication_date":"2026-01-27T22:08:46.005764Z","neighborhood":{"commune":"Usaquén","country_code":"co","neighborhood":"San Juan Bosco, La Uribe","region":"Bogotá"},"photos":[{"id":"10d6820d-f97f-4fc6-90a7-bdfdf030fb78","created_at":"2025-06-23T12:41:57.525995Z","updated_at":"2025-06-23T12:41:57.526008Z","filename":"property97a3ba5530b84339885429ca5b9bbfa14u49p0atikb.jpg","featured":false,"order":0,"url":"https://s3.amazonaws.com/properties-media/thumbnail/97a3ba55-30b8-4339-8854-29ca5b9bbfa1property97a3ba5530b84339885429ca5b9bbfa14u49p0atikb.jpg"}],"property_details":[{"banos":1,"dormitorios":1,"latitud":4.747239,"longitud":-74.02429529999999,"m_construidos":31,"m_terreno":31}],"region":"Bogotá","type":"departamento","user":{"role":"propietary"},"first_available_handover_date":null,"development":null,"price":[{"value":246000000.0,"recommended_value":246961250.0,"currency":"COP","default":true}],"previous_price":[],"last_price_change_date":null,"is_price_lower":false,"unit_types":[]},{"uid":"48d4f7b8-5843-4602-808d-74093d2cd486","id":148268,"address":"Calle 149","association_amenities":{"association_name":"Bosque de Pino"},"comuna":"Usaquén","hotness_score":1,"investment_type":"regular","last_publication_date":"2025-04-09T15:47:52.173391Z","neighborhood":{"commune":"Usaquén","country_code":"co","neighborhood":"Bosques de Pinos","region":"Bogotá"},"photos":[{"id":"355c9c9e-b976-44e7-b78d-3f788d0d86bf","created_at":"2025-02-15T00:53:48.705040Z","updated_at":"2025-02-15T00:53:48.705063Z","filename":"property48d4f7b858434602808d74093d2cd486mv1c0ghuroe.jpg","featured":false,"order":0,"url":"https://s3.amazonaws.com/properties-media/thumbnail/48d4f7b8-5843-4602-808d-74093d2cd486property48d4f7b858434602808d74093d2cd486mv1c0ghuroe.jpg"}],"property_details":[{"banos":4,"dormitorios":2,"latitud":4.7234774,"longitud":-74.0241848,"m_construidos":160,"m_terreno":160}],"region":"Bogotá","type":"departamento","user":{"role":"propietary"},"first_available_handover_date":null,"development":null,"price":[{"value":1090000000.0,"recommended_value":856035400.0,"currency":"COP","default":true}],"previous_price":[],"last_price_change_date":null,"is_price_lower":false,"unit_types":[]}]}